{
  "preparations": [
    {
      "language": "german",
      "word_index_building": {
        "build_word_index": true,
        "index_name": "word_index.json"
      },
      "corpus_building": {
        "save_path": "/Users/simons/dev/workspaces/ABSA-Components/Resources/Corpus/german.txt",
        "sources": [
          {
            "data_path": "/Users/simons/Uni/Bachelorarbeit/Vorarbeit/Baseline/train_v1.4.xml",
            "data_format": "xml_germeval"
          },
          {
            "data_path": "/Users/simons/Uni/Bachelorarbeit/Vorarbeit/Baseline/dev_v1.4.xml",
            "data_format": "xml_germeval"
          },
          {
            "data_path": "/Users/simons/dev/workspaces/germEval/Bachelorarbeit_GermEval2017/Resources/Embedding/Crawled-Texts/db_tweets_2.txt",
            "data_format": "txt"
          },
          {
            "data_path": "/Users/simons/dev/workspaces/germEval/Bachelorarbeit_GermEval2017/Resources/Embedding/Crawled-Texts/db_tweets_3.txt",
            "data_format": "txt"
          },
          {
            "data_path": "/Users/simons/dev/workspaces/germEval/Bachelorarbeit_GermEval2017/Resources/Embedding/Crawled-Texts/db_tweets.txt",
            "data_format": "txt"
          }
        ]
      },
      "aspect_extraction": {
        "index_name": "aspect_index_sem_eval_restaurants",
        "method": "gold_labels",
        "parameters": {
          "data_path": "/Users/simons/Uni/Bachelorarbeit/Vorarbeit/Baseline/train_v1.4.xml",
          "data_format": "xml_germeval"
        }
      },
      "word_vector_building": {
        "methods": [
          {
            "name": "fasttext",
            "save_name": "fasttext",
            "combine_with_pretrained": false,
            "pretrained_path": ""
          },
          {
            "name": "word2vec",
            "save_name": "word2vec.txt",
            "combine_with_pretrained": false,
            "pretrained_path": ""
          }
        ]
      },
      "char_index_building": {
        "index_name": "char_index",
        "build_char_index": true,
        "allowed_chars": "äüöabcdefghijklmnopqrstuvwxyzÄÖÜABCDEFGHIJKLMNOPQRSTUVWXYZ0123456789?=)(/&%$§\"!'#+*-.,;:ß´`><"
      }
    }
  ]

}