{"setups":
  [
    {
      "data_path": "/Users/simons/Projekte/ABSA-Publikation/Daten/ABSA-SemEval2016/Restaurant/test_gold.xml",
      "data_format": "xml_semeval",
      "name": "delete_me"
    },
    {
      "data_path": "/Users/simons/Projekte/ABSA-Publikation/Daten/ABSA-SemEval2016/Restaurant/test_gold.xml",
      "data_format": "xml_semeval",
      "name": "semeval_restaurant_batch_size_8"
    },
    {
      "data_path": "/Users/simons/Projekte/ABSA-Publikation/Daten/ABSA-SemEval2016/Restaurant/test_gold.xml",
      "data_format": "xml_semeval",
      "name": "semeval_restaurant_batch_size_16"
    },
    {
      "data_path": "/Users/simons/Projekte/ABSA-Publikation/Daten/ABSA-SemEval2016/Restaurant/test_gold.xml",
      "data_format": "xml_semeval",
      "name": "semeval_restaurant_batch_size_32"
    },
    {
      "data_path": "/Users/simons/Projekte/ABSA-Publikation/Daten/ABSA-SemEval2016/Restaurant/test_gold.xml",
      "data_format": "xml_semeval",
      "name": "semeval_restaurant_fasttext_char_cnn"
    },
    {
      "data_path": "/Users/simons/Projekte/ABSA-Publikation/Daten/ABSA-SemEval2016/Restaurant/test_gold.xml",
      "data_format": "xml_semeval",
      "name": "semeval_restaurant_fasttext_char_lstm"
    },
    {
      "data_path": "/Users/simons/Projekte/ABSA-Publikation/Daten/ABSA-SemEval2016/Restaurant/test_gold.xml",
      "data_format": "xml_semeval",
      "name": "semeval_restaurant_word2vec_char_cnn"
    },
    {
      "data_path": "/Users/simons/Projekte/ABSA-Publikation/Daten/ABSA-SemEval2016/Restaurant/test_gold.xml",
      "data_format": "xml_semeval",
      "name": "semeval_restaurant_word2vec_char_lstm"
    }
  ]
}