{
  "setups":[
    {
    "general": {
        "aspect_index_path": "/Users/simons/dev/workspaces/ABSA-Components/Resources/Indexes/german/aspect_index_germ_eval.json",
        "word_index_path": "/Users/simons/dev/workspaces/ABSA-Components/Resources/Indexes/german/word_index.json",
        "char_index_path": "/Users/simons/dev/workspaces/ABSA-Components/Resources/Indexes/german/char_index.json",
        "name": "2_step_end_to_end_lstm_word2vec",
        "pseudo_labeling": false
      },
      "data_loading": {
        "data_path": "/Users/simons/Uni/Bachelorarbeit/Vorarbeit/Baseline/train_v1.4.xml",
        "data_format": "xml_germeval",
        "pseudo_path": "home/ubuntu/data/unlabeled/restaurants.txt",
        "pseudo_format": "txt"
      },
      "conversion": {
        "input_conversions": ["word_indexes"],
        "output_conversions": ["sent_per_asp"]
      },
      "model": {
        "embedding": {
          "methods": ["fasttext_ger"]
        },
        "encoder": {
          "method": "lstm",
          "parameters": {
            "dropout": 0.5,
            "embedding_dim": 200
          }
        },
        "output": {
          "activation": "softmax"
        }
      },
      "training": {
        "batch_size": 16,
        "epochs": 20,
        "optimizer": "sgd",
        "penalization": "None"
      }
    },
    {
      "general": {
        "aspect_index_path": "/Users/simons/dev/workspaces/ABSA-Components/Resources/Indexes/english/aspect_index_sem_eval_restaurants.json",
        "word_index_path": "/Users/simons/dev/workspaces/ABSA-Components/Resources/Indexes/english/word_index_restaurants.json",
        "char_index_path": "/Users/simons/dev/workspaces/ABSA-Components/Resources/Indexes/english/char_index.json",
        "name": "delete_me",
        "pseudo_labeling": false
      },
      "data_loading": {
        "data_path": "/Users/simons/Projekte/ABSA-Publikation/Daten/ABSA-SemEval2016/Restaurant/train_1.xml",
        "data_format": "xml_semeval",
        "pseudo_path": "/Users/simons/Projekte/ABSA-Publikation/Daten/Unsupervised/restaurant/restaurants_short.txt",
        "pseudo_format": "txt"
      },
      "conversion": {
        "input_conversions": ["word_indexes"],
        "output_conversions": ["sent_per_asp"]
      },
      "model": {
        "embedding": {
          "methods": ["fasttext_ger"]
        },
        "encoder": {
          "method": "lstm",
          "parameters": {
            "dropout": 0.5,
            "embedding_dim": 200
          }
        },
        "output": {
          "activation": "softmax"
        }
      },
      "training": {
        "batch_size": 64,
        "epochs": 1,
        "optimizer": "sgd",
        "penalization": "basic"
      }
    }
  ]
}