{
  "fasttext_ger": "/german/fasttext.bin",
  "fasttext_ger_old": "/german/traindata_crawled.bin",
  "word2vec_ger": "/german/word2vec.txt",
  "word2vec_ger_old": "/german/embedding_file_extended_url_replaced.txt",
  "word2vec_eng_rest": "/english/word2vec_restaurant.txt",
  "fasttext_eng_rest": "/english/fasttext_restaurant.bin"
}